{
  "project_info": {
    "project_number": "432590308778",
    "firebase_url": "https://training-ef5ed-default-rtdb.firebaseio.com",
    "project_id": "training-ef5ed",
    "storage_bucket": "training-ef5ed.appspot.com"
  },
  "client": [
    {
      "client_info": {
        "mobilesdk_app_id": "1:432590308778:android:a4ef623c4a888e14c097d3",
        "android_client_info": {
          "package_name": "com.trainingappsteamb"
        }
      },
      "oauth_client": [
        {
          "client_id": "432590308778-5b3lo23o3qk9gbvjg3n1s61da3n1i3v5.apps.googleusercontent.com",
          "client_type": 3
        }
      ],
      "api_key": [
        {
          "current_key": "AIzaSyDntlo47P925uCdRae18LQHueqgga_cmYk"
        }
      ],
      "services": {
        "appinvite_service": {
          "other_platform_oauth_client": [
            {
              "client_id": "432590308778-5b3lo23o3qk9gbvjg3n1s61da3n1i3v5.apps.googleusercontent.com",
              "client_type": 3
            }
          ]
        }
      }
    }
  ],
  "configuration_version": "1"
}